Flow report for fpgagen
Wed Aug 15 21:36:37 2018
Quartus Prime Version 17.1.0 Build 590 10/25/2017 SJ Lite Edition


---------------------
; Table of Contents ;
---------------------
  1. Legal Notice
  2. Flow Summary
  3. Flow Settings
  4. Flow Non-Default Global Settings
  5. Flow Elapsed Time
  6. Flow OS Summary
  7. Flow Log
  8. Flow Messages
  9. Flow Suppressed Messages



----------------
; Legal Notice ;
----------------
Copyright (C) 2017  Intel Corporation. All rights reserved.
Your use of Intel Corporation's design tools, logic functions 
and other software and tools, and its AMPP partner logic 
functions, and any output files from any of the foregoing 
(including device programming or simulation files), and any 
associated documentation or information are expressly subject 
to the terms and conditions of the Intel Program License 
Subscription Agreement, the Intel Quartus Prime License Agreement,
the Intel FPGA IP License Agreement, or other applicable license
agreement, including, without limitation, that your use is for
the sole purpose of programming logic devices manufactured by
Intel and sold by Intel or its authorized distributors.  Please
refer to the applicable agreement for further details.



+----------------------------------------------------------------------------------+
; Flow Summary                                                                     ;
+------------------------------------+---------------------------------------------+
; Flow Status                        ; Successful - Wed Aug 15 21:36:23 2018       ;
; Quartus Prime Version              ; 17.1.0 Build 590 10/25/2017 SJ Lite Edition ;
; Revision Name                      ; fpgagen                                     ;
; Top-level Entity Name              ; DE1_Toplevel                                ;
; Family                             ; Cyclone IV E                                ;
; Device                             ; EP4CE22F17C8                                ;
; Timing Models                      ; Final                                       ;
; Total logic elements               ; 16,520 / 22,320 ( 74 % )                    ;
;     Total combinational functions  ; 14,379 / 22,320 ( 64 % )                    ;
;     Dedicated logic registers      ; 7,481 / 22,320 ( 34 % )                     ;
; Total registers                    ; 7497                                        ;
; Total pins                         ; 88 / 154 ( 57 % )                           ;
; Total virtual pins                 ; 0                                           ;
; Total memory bits                  ; 335,903 / 608,256 ( 55 % )                  ;
; Embedded Multiplier 9-bit elements ; 6 / 132 ( 5 % )                             ;
; Total PLLs                         ; 1 / 4 ( 25 % )                              ;
+------------------------------------+---------------------------------------------+


+-----------------------------------------+
; Flow Settings                           ;
+-------------------+---------------------+
; Option            ; Setting             ;
+-------------------+---------------------+
; Start date & time ; 08/15/2018 21:31:15 ;
; Main task         ; Compilation         ;
; Revision Name     ; fpgagen             ;
+-------------------+---------------------+


+----------------------------------------------------------------------------------------------------------------------------------+
; Flow Non-Default Global Settings                                                                                                 ;
+-----------------------------------------+----------------------------------------+---------------+--------------+----------------+
; Assignment Name                         ; Value                                  ; Default Value ; Entity Name  ; Section Id     ;
+-----------------------------------------+----------------------------------------+---------------+--------------+----------------+
; AUTO_RAM_TO_LCELL_CONVERSION            ; On                                     ; Off           ; --           ; --             ;
; COMPILER_SIGNATURE_ID                   ; 238368721080448.153436147501080        ; --            ; --           ; --             ;
; MAX_CORE_JUNCTION_TEMP                  ; 85                                     ; --            ; --           ; --             ;
; MIN_CORE_JUNCTION_TEMP                  ; 0                                      ; --            ; --           ; --             ;
; MISC_FILE                               ; ../../Board/de1/pll.ppf                ; --            ; --           ; --             ;
; PARTITION_COLOR                         ; -- (Not supported for targeted family) ; --            ; DE1_Toplevel ; Top            ;
; PARTITION_FITTER_PRESERVATION_LEVEL     ; -- (Not supported for targeted family) ; --            ; DE1_Toplevel ; Top            ;
; PARTITION_NETLIST_TYPE                  ; -- (Not supported for targeted family) ; --            ; DE1_Toplevel ; Top            ;
; PHYSICAL_SYNTHESIS_COMBO_LOGIC          ; On                                     ; Off           ; --           ; --             ;
; PHYSICAL_SYNTHESIS_COMBO_LOGIC_FOR_AREA ; On                                     ; Off           ; --           ; --             ;
; PHYSICAL_SYNTHESIS_REGISTER_RETIMING    ; On                                     ; Off           ; --           ; --             ;
; POWER_BOARD_THERMAL_MODEL               ; None (CONSERVATIVE)                    ; --            ; --           ; --             ;
; POWER_PRESET_COOLING_SOLUTION           ; 23 MM HEAT SINK WITH 200 LFPM AIRFLOW  ; --            ; --           ; --             ;
; SMART_RECOMPILE                         ; On                                     ; Off           ; --           ; --             ;
; TOP_LEVEL_ENTITY                        ; DE1_Toplevel                           ; fpgagen       ; --           ; --             ;
; USE_GENERATED_PHYSICAL_CONSTRAINTS      ; Off                                    ; --            ; --           ; eda_blast_fpga ;
+-----------------------------------------+----------------------------------------+---------------+--------------+----------------+


+-------------------------------------------------------------------------------------------------------------------------------+
; Flow Elapsed Time                                                                                                             ;
+---------------------------+--------------+-------------------------+---------------------+------------------------------------+
; Module Name               ; Elapsed Time ; Average Processors Used ; Peak Virtual Memory ; Total CPU Time (on all processors) ;
+---------------------------+--------------+-------------------------+---------------------+------------------------------------+
; Analysis & Synthesis      ; 00:02:53     ; 1.0                     ; 892 MB              ; 00:02:54                           ;
; Fitter                    ; 00:02:00     ; 1.2                     ; 1723 MB             ; 00:03:31                           ;
; Assembler                 ; 00:00:04     ; 1.0                     ; 605 MB              ; 00:00:03                           ;
; TimeQuest Timing Analyzer ; 00:00:12     ; 1.5                     ; 836 MB              ; 00:00:15                           ;
; Total                     ; 00:05:09     ; --                      ; --                  ; 00:06:43                           ;
+---------------------------+--------------+-------------------------+---------------------+------------------------------------+


+----------------------------------------------------------------------------------------+
; Flow OS Summary                                                                        ;
+---------------------------+------------------+-----------+------------+----------------+
; Module Name               ; Machine Hostname ; OS Name   ; OS Version ; Processor type ;
+---------------------------+------------------+-----------+------------+----------------+
; Analysis & Synthesis      ; ingepal          ; Windows 7 ; 6.1        ; x86_64         ;
; Fitter                    ; ingepal          ; Windows 7 ; 6.1        ; x86_64         ;
; Assembler                 ; ingepal          ; Windows 7 ; 6.1        ; x86_64         ;
; TimeQuest Timing Analyzer ; ingepal          ; Windows 7 ; 6.1        ; x86_64         ;
+---------------------------+------------------+-----------+------------+----------------+


------------
; Flow Log ;
------------
quartus_map --read_settings_files=on --write_settings_files=off fpgagen -c fpgagen
quartus_fit --read_settings_files=off --write_settings_files=off fpgagen -c fpgagen
quartus_asm --read_settings_files=off --write_settings_files=off fpgagen -c fpgagen
quartus_sta fpgagen -c fpgagen



